…
Namenwerte sind Spaltennamen!

Und hier die Lösung: Auch hier wandeln wir wieder in das long-Format um!

statclass2Tidy <- statclass2 %>%
  pivot_longer(
    momo:sascha, 
    names_to = "names", 
    values_to = "grade"
  )

statclass2Tidy

## # A tibble: 24 × 4
##    test  exam  names  grade
##    <chr> <chr> <chr>  <dbl>
##  1 stat1 exam1 momo      12
##  2 stat1 exam1 kim       13
##  3 stat1 exam1 sascha     4
##  4 stat1 exam2 momo      NA
##  5 stat1 exam2 kim       NA
##  6 stat1 exam2 sascha     8
##  7 stat2 exam1 momo       5
##  8 stat2 exam1 kim       10
##  9 stat2 exam1 sascha     5
## 10 stat2 exam2 momo      NA
## # ℹ 14 more rows
…
