…
Hier können wir jetzt auch einen Vorteil des modularen Prinzips erkennen. Wenn wir neue Variablen (hier wkhtotMean) berechnen und weitergeben, können wir diese in den folgenden Operationen direkt nutzen.

Alternativ könnten wir die Daten auch hierarchisch gruppieren nach Distrikt und Bildung (edu) und uns dann einfach die unterschiedlichen Mittelwerte mit summarize() ausgeben lassen:

meansDistriktEdu <- pss %>%
  group_by(
    district,
    edu
  ) %>%
  summarize(mean(wkhtot)) 

meansDistriktEdu

## # A tibble: 29 × 3
## # Groups:   district [5]
##    district   edu          `mean(wkhtot)`
##    <fct>      <fct>                 <dbl>
##  1 Distrikt 1 ES-ISCED I             33.8
##  2 Distrikt 1 ES-ISCED II            33.2
##  3 Distrikt 1 ES-ISCED III           32.4
##  4 Distrikt 1 ES-ISCED IV            31.8
##  5 Distrikt 1 ES-ISCED V             29.5
##  6 Distrikt 1 <NA>                   31.0
##  7 Distrikt 5 ES-ISCED I             34.1
##  8 Distrikt 5 ES-ISCED II            33.6
##  9 Distrikt 5 ES-ISCED III           33.2
## 10 Distrikt 5 ES-ISCED IV            32.2
## # ℹ 19 more rows
…
