…
Dies können wir auch gruppieren:

pss %>% 
  group_by(district) %>% 
  miss_var_summary()

## # A tibble: 65 × 4
## # Groups:   district [5]
##    district   variable n_miss pct_miss
##    <fct>      <chr>     <int>    <dbl>
##  1 Distrikt 1 edu          30      3  
##  2 Distrikt 1 stfdem       16      1.6
##  3 Distrikt 1 trstprl       8      0.8
##  4 Distrikt 1 trstprt       4      0.4
##  5 Distrikt 1 lrscale       2      0.2
##  6 Distrikt 1 trstlgl       1      0.1
##  7 Distrikt 1 idno          0      0  
##  8 Distrikt 1 gndr          0      0  
##  9 Distrikt 1 agea          0      0  
## 10 Distrikt 1 wkhtot        0      0  
## # ℹ 55 more rows
…
